{
	"textures": [
		{
			"image": "tanks.png",
			"format": "RGBA8888",
			"size": {
				"w": 498,
				"h": 368
			},
			"scale": 1,
			"frames": [
				{
					"filename": "bulletSand1.png",
					"frame": {
						"x": 1,
						"y": 1,
						"w": 4,
						"h": 10
					},
					"rotated": false,
					"trimmed": false,
					"spriteSourceSize": {
						"x": 0,
						"y": 0,
						"w": 4,
						"h": 10
					},
					"sourceSize": {
						"w": 4,
						"h": 10
					}
				},
				{
					"filename": "bulletBlue1.png",
					"frame": {
						"x": 7,
						"y": 1,
						"w": 4,
						"h": 10
					},
					"rotated": false,
					"trimmed": false,
					"spriteSourceSize": {
						"x": 0,
						"y": 0,
						"w": 4,
						"h": 10
					},
					"sourceSize": {
						"w": 4,
						"h": 10
					}
				},
				{
					"filename": "bulletRed1.png",
					"frame": {
						"x": 13,
						"y": 1,
						"w": 4,
						"h": 10
					},
					"rotated": false,
					"trimmed": false,
					"spriteSourceSize": {
						"x": 0,
						"y": 0,
						"w": 4,
						"h": 10
					},
					"sourceSize": {
						"w": 4,
						"h": 10
					}
				},
				{
					"filename": "bulletDark1.png",
					"frame": {
						"x": 19,
						"y": 1,
						"w": 4,
						"h": 10
					},
					"rotated": false,
					"trimmed": false,
					"spriteSourceSize": {
						"x": 0,
						"y": 0,
						"w": 4,
						"h": 10
					},
					"sourceSize": {
						"w": 4,
						"h": 10
					}
				},
				{
					"filename": "treeBrown_leaf.png",
					"frame": {
						"x": 25,
						"y": 1,
						"w": 8,
						"h": 10
					},
					"rotated": false,
					"trimmed": false,
					"spriteSourceSize": {
						"x": 0,
						"y": 0,
						"w": 8,
						"h": 10
					},
					"sourceSize": {
						"w": 8,
						"h": 10
					}
				},
				{
					"filename": "treeGreen_leaf.png",
					"frame": {
						"x": 35,
						"y": 1,
						"w": 8,
						"h": 10
					},
					"rotated": false,
					"trimmed": false,
					"spriteSourceSize": {
						"x": 0,
						"y": 0,
						"w": 8,
						"h": 10
					},
					"sourceSize": {
						"w": 8,
						"h": 10
					}
				},
				{
					"filename": "bulletGreen1.png",
					"frame": {
						"x": 45,
						"y": 1,
						"w": 4,
						"h": 10
					},
					"rotated": false,
					"trimmed": false,
					"spriteSourceSize": {
						"x": 0,
						"y": 0,
						"w": 4,
						"h": 10
					},
					"sourceSize": {
						"w": 4,
						"h": 10
					}
				},
				{
					"filename": "bulletGreen2.png",
					"frame": {
						"x": 51,
						"y": 1,
						"w": 8,
						"h": 12
					},
					"rotated": false,
					"trimmed": false,
					"spriteSourceSize": {
						"x": 0,
						"y": 0,
						"w": 8,
						"h": 12
					},
					"sourceSize": {
						"w": 8,
						"h": 12
					}
				},
				{
					"filename": "bulletRed2.png",
					"frame": {
						"x": 61,
						"y": 1,
						"w": 8,
						"h": 12
					},
					"rotated": false,
					"trimmed": false,
					"spriteSourceSize": {
						"x": 0,
						"y": 0,
						"w": 8,
						"h": 12
					},
					"sourceSize": {
						"w": 8,
						"h": 12
					}
				},
				{
					"filename": "bulletDark2.png",
					"frame": {
						"x": 71,
						"y": 1,
						"w": 8,
						"h": 12
					},
					"rotated": false,
					"trimmed": false,
					"spriteSourceSize": {
						"x": 0,
						"y": 0,
						"w": 8,
						"h": 12
					},
					"sourceSize": {
						"w": 8,
						"h": 12
					}
				},
				{
					"filename": "bulletBlue2.png",
					"frame": {
						"x": 81,
						"y": 1,
						"w": 8,
						"h": 12
					},
					"rotated": false,
					"trimmed": false,
					"spriteSourceSize": {
						"x": 0,
						"y": 0,
						"w": 8,
						"h": 12
					},
					"sourceSize": {
						"w": 8,
						"h": 12
					}
				},
				{
					"filename": "bulletSand2.png",
					"frame": {
						"x": 91,
						"y": 1,
						"w": 8,
						"h": 12
					},
					"rotated": false,
					"trimmed": false,
					"spriteSourceSize": {
						"x": 0,
						"y": 0,
						"w": 8,
						"h": 12
					},
					"sourceSize": {
						"w": 8,
						"h": 12
					}
				},
				{
					"filename": "bulletRed1_outline.png",
					"frame": {
						"x": 101,
						"y": 1,
						"w": 8,
						"h": 14
					},
					"rotated": false,
					"trimmed": false,
					"spriteSourceSize": {
						"x": 0,
						"y": 0,
						"w": 8,
						"h": 14
					},
					"sourceSize": {
						"w": 8,
						"h": 14
					}
				},
				{
					"filename": "bulletGreen1_outline.png",
					"frame": {
						"x": 111,
						"y": 1,
						"w": 8,
						"h": 14
					},
					"rotated": false,
					"trimmed": false,
					"spriteSourceSize": {
						"x": 0,
						"y": 0,
						"w": 8,
						"h": 14
					},
					"sourceSize": {
						"w": 8,
						"h": 14
					}
				},
				{
					"filename": "bulletDark3.png",
					"frame": {
						"x": 121,
						"y": 1,
						"w": 4,
						"h": 14
					},
					"rotated": false,
					"trimmed": false,
					"spriteSourceSize": {
						"x": 0,
						"y": 0,
						"w": 4,
						"h": 14
					},
					"sourceSize": {
						"w": 4,
						"h": 14
					}
				},
				{
					"filename": "bulletGreen3.png",
					"frame": {
						"x": 127,
						"y": 1,
						"w": 4,
						"h": 14
					},
					"rotated": false,
					"trimmed": false,
					"spriteSourceSize": {
						"x": 0,
						"y": 0,
						"w": 4,
						"h": 14
					},
					"sourceSize": {
						"w": 4,
						"h": 14
					}
				},
				{
					"filename": "bulletSand3.png",
					"frame": {
						"x": 133,
						"y": 1,
						"w": 4,
						"h": 14
					},
					"rotated": false,
					"trimmed": false,
					"spriteSourceSize": {
						"x": 0,
						"y": 0,
						"w": 4,
						"h": 14
					},
					"sourceSize": {
						"w": 4,
						"h": 14
					}
				},
				{
					"filename": "bulletRed3.png",
					"frame": {
						"x": 139,
						"y": 1,
						"w": 4,
						"h": 14
					},
					"rotated": false,
					"trimmed": false,
					"spriteSourceSize": {
						"x": 0,
						"y": 0,
						"w": 4,
						"h": 14
					},
					"sourceSize": {
						"w": 4,
						"h": 14
					}
				},
				{
					"filename": "bulletBlue1_outline.png",
					"frame": {
						"x": 145,
						"y": 1,
						"w": 8,
						"h": 14
					},
					"rotated": false,
					"trimmed": false,
					"spriteSourceSize": {
						"x": 0,
						"y": 0,
						"w": 8,
						"h": 14
					},
					"sourceSize": {
						"w": 8,
						"h": 14
					}
				},
				{
					"filename": "bulletSand1_outline.png",
					"frame": {
						"x": 155,
						"y": 1,
						"w": 8,
						"h": 14
					},
					"rotated": false,
					"trimmed": false,
					"spriteSourceSize": {
						"x": 0,
						"y": 0,
						"w": 8,
						"h": 14
					},
					"sourceSize": {
						"w": 8,
						"h": 14
					}
				},
				{
					"filename": "bulletBlue3.png",
					"frame": {
						"x": 165,
						"y": 1,
						"w": 4,
						"h": 14
					},
					"rotated": false,
					"trimmed": false,
					"spriteSourceSize": {
						"x": 0,
						"y": 0,
						"w": 4,
						"h": 14
					},
					"sourceSize": {
						"w": 4,
						"h": 14
					}
				},
				{
					"filename": "bulletDark1_outline.png",
					"frame": {
						"x": 171,
						"y": 1,
						"w": 8,
						"h": 14
					},
					"rotated": false,
					"trimmed": false,
					"spriteSourceSize": {
						"x": 0,
						"y": 0,
						"w": 8,
						"h": 14
					},
					"sourceSize": {
						"w": 8,
						"h": 14
					}
				},
				{
					"filename": "oilSpill_small.png",
					"frame": {
						"x": 181,
						"y": 1,
						"w": 14,
						"h": 14
					},
					"rotated": false,
					"trimmed": false,
					"spriteSourceSize": {
						"x": 0,
						"y": 0,
						"w": 14,
						"h": 14
					},
					"sourceSize": {
						"w": 14,
						"h": 14
					}
				},
				{
					"filename": "fenceRed.png",
					"frame": {
						"x": 197,
						"y": 1,
						"w": 48,
						"h": 16
					},
					"rotated": false,
					"trimmed": false,
					"spriteSourceSize": {
						"x": 0,
						"y": 0,
						"w": 48,
						"h": 16
					},
					"sourceSize": {
						"w": 48,
						"h": 16
					}
				},
				{
					"filename": "bulletSand2_outline.png",
					"frame": {
						"x": 247,
						"y": 1,
						"w": 12,
						"h": 16
					},
					"rotated": false,
					"trimmed": false,
					"spriteSourceSize": {
						"x": 0,
						"y": 0,
						"w": 12,
						"h": 16
					},
					"sourceSize": {
						"w": 12,
						"h": 16
					}
				},
				{
					"filename": "bulletRed2_outline.png",
					"frame": {
						"x": 261,
						"y": 1,
						"w": 12,
						"h": 16
					},
					"rotated": false,
					"trimmed": false,
					"spriteSourceSize": {
						"x": 0,
						"y": 0,
						"w": 12,
						"h": 16
					},
					"sourceSize": {
						"w": 12,
						"h": 16
					}
				},
				{
					"filename": "fenceYellow.png",
					"frame": {
						"x": 275,
						"y": 1,
						"w": 52,
						"h": 16
					},
					"rotated": false,
					"trimmed": false,
					"spriteSourceSize": {
						"x": 0,
						"y": 0,
						"w": 52,
						"h": 16
					},
					"sourceSize": {
						"w": 52,
						"h": 16
					}
				},
				{
					"filename": "bulletDark2_outline.png",
					"frame": {
						"x": 329,
						"y": 1,
						"w": 12,
						"h": 16
					},
					"rotated": false,
					"trimmed": false,
					"spriteSourceSize": {
						"x": 0,
						"y": 0,
						"w": 12,
						"h": 16
					},
					"sourceSize": {
						"w": 12,
						"h": 16
					}
				},
				{
					"filename": "bulletBlue2_outline.png",
					"frame": {
						"x": 343,
						"y": 1,
						"w": 12,
						"h": 16
					},
					"rotated": false,
					"trimmed": false,
					"spriteSourceSize": {
						"x": 0,
						"y": 0,
						"w": 12,
						"h": 16
					},
					"sourceSize": {
						"w": 12,
						"h": 16
					}
				},
				{
					"filename": "bulletGreen2_outline.png",
					"frame": {
						"x": 357,
						"y": 1,
						"w": 12,
						"h": 16
					},
					"rotated": false,
					"trimmed": false,
					"spriteSourceSize": {
						"x": 0,
						"y": 0,
						"w": 12,
						"h": 16
					},
					"sourceSize": {
						"w": 12,
						"h": 16
					}
				},
				{
					"filename": "bulletDark3_outline.png",
					"frame": {
						"x": 371,
						"y": 1,
						"w": 8,
						"h": 18
					},
					"rotated": false,
					"trimmed": false,
					"spriteSourceSize": {
						"x": 0,
						"y": 0,
						"w": 8,
						"h": 18
					},
					"sourceSize": {
						"w": 8,
						"h": 18
					}
				},
				{
					"filename": "bulletRed3_outline.png",
					"frame": {
						"x": 381,
						"y": 1,
						"w": 8,
						"h": 18
					},
					"rotated": false,
					"trimmed": false,
					"spriteSourceSize": {
						"x": 0,
						"y": 0,
						"w": 8,
						"h": 18
					},
					"sourceSize": {
						"w": 8,
						"h": 18
					}
				},
				{
					"filename": "bulletGreen3_outline.png",
					"frame": {
						"x": 391,
						"y": 1,
						"w": 8,
						"h": 18
					},
					"rotated": false,
					"trimmed": false,
					"spriteSourceSize": {
						"x": 0,
						"y": 0,
						"w": 8,
						"h": 18
					},
					"sourceSize": {
						"w": 8,
						"h": 18
					}
				},
				{
					"filename": "bulletSand3_outline.png",
					"frame": {
						"x": 401,
						"y": 1,
						"w": 8,
						"h": 18
					},
					"rotated": false,
					"trimmed": false,
					"spriteSourceSize": {
						"x": 0,
						"y": 0,
						"w": 8,
						"h": 18
					},
					"sourceSize": {
						"w": 8,
						"h": 18
					}
				},
				{
					"filename": "bulletBlue3_outline.png",
					"frame": {
						"x": 411,
						"y": 1,
						"w": 8,
						"h": 18
					},
					"rotated": false,
					"trimmed": false,
					"spriteSourceSize": {
						"x": 0,
						"y": 0,
						"w": 8,
						"h": 18
					},
					"sourceSize": {
						"w": 8,
						"h": 18
					}
				},
				{
					"filename": "sandbagBrown.png",
					"frame": {
						"x": 421,
						"y": 1,
						"w": 32,
						"h": 22
					},
					"rotated": false,
					"trimmed": false,
					"spriteSourceSize": {
						"x": 0,
						"y": 0,
						"w": 32,
						"h": 22
					},
					"sourceSize": {
						"w": 32,
						"h": 22
					}
				},
				{
					"filename": "treeBrown_twigs.png",
					"frame": {
						"x": 455,
						"y": 1,
						"w": 26,
						"h": 22
					},
					"rotated": false,
					"trimmed": false,
					"spriteSourceSize": {
						"x": 0,
						"y": 0,
						"w": 26,
						"h": 22
					},
					"sourceSize": {
						"w": 26,
						"h": 22
					}
				},
				{
					"filename": "treeGreen_twigs.png",
					"frame": {
						"x": 1,
						"y": 25,
						"w": 26,
						"h": 22
					},
					"rotated": false,
					"trimmed": false,
					"spriteSourceSize": {
						"x": 0,
						"y": 0,
						"w": 26,
						"h": 22
					},
					"sourceSize": {
						"w": 26,
						"h": 22
					}
				},
				{
					"filename": "sandbagBeige.png",
					"frame": {
						"x": 29,
						"y": 25,
						"w": 32,
						"h": 22
					},
					"rotated": false,
					"trimmed": false,
					"spriteSourceSize": {
						"x": 0,
						"y": 0,
						"w": 32,
						"h": 22
					},
					"sourceSize": {
						"w": 32,
						"h": 22
					}
				},
				{
					"filename": "specialBarrel1.png",
					"frame": {
						"x": 63,
						"y": 25,
						"w": 14,
						"h": 22
					},
					"rotated": false,
					"trimmed": false,
					"spriteSourceSize": {
						"x": 0,
						"y": 0,
						"w": 14,
						"h": 22
					},
					"sourceSize": {
						"w": 14,
						"h": 22
					}
				},
				{
					"filename": "barrelBlack_top.png",
					"frame": {
						"x": 79,
						"y": 25,
						"w": 24,
						"h": 24
					},
					"rotated": false,
					"trimmed": false,
					"spriteSourceSize": {
						"x": 0,
						"y": 0,
						"w": 24,
						"h": 24
					},
					"sourceSize": {
						"w": 24,
						"h": 24
					}
				},
				{
					"filename": "barrelRust_top.png",
					"frame": {
						"x": 105,
						"y": 25,
						"w": 24,
						"h": 24
					},
					"rotated": false,
					"trimmed": false,
					"spriteSourceSize": {
						"x": 0,
						"y": 0,
						"w": 24,
						"h": 24
					},
					"sourceSize": {
						"w": 24,
						"h": 24
					}
				},
				{
					"filename": "specialBarrel2.png",
					"frame": {
						"x": 131,
						"y": 25,
						"w": 12,
						"h": 24
					},
					"rotated": false,
					"trimmed": false,
					"spriteSourceSize": {
						"x": 0,
						"y": 0,
						"w": 12,
						"h": 24
					},
					"sourceSize": {
						"w": 12,
						"h": 24
					}
				},
				{
					"filename": "barrelRed_top.png",
					"frame": {
						"x": 145,
						"y": 25,
						"w": 24,
						"h": 24
					},
					"rotated": false,
					"trimmed": false,
					"spriteSourceSize": {
						"x": 0,
						"y": 0,
						"w": 24,
						"h": 24
					},
					"sourceSize": {
						"w": 24,
						"h": 24
					}
				},
				{
					"filename": "barrelGreen_top.png",
					"frame": {
						"x": 171,
						"y": 25,
						"w": 24,
						"h": 24
					},
					"rotated": false,
					"trimmed": false,
					"spriteSourceSize": {
						"x": 0,
						"y": 0,
						"w": 24,
						"h": 24
					},
					"sourceSize": {
						"w": 24,
						"h": 24
					}
				},
				{
					"filename": "shotLarge.png",
					"frame": {
						"x": 197,
						"y": 25,
						"w": 20,
						"h": 25
					},
					"rotated": false,
					"trimmed": false,
					"spriteSourceSize": {
						"x": 0,
						"y": 0,
						"w": 20,
						"h": 25
					},
					"sourceSize": {
						"w": 20,
						"h": 25
					}
				},
				{
					"filename": "tankRed_barrel1.png",
					"frame": {
						"x": 219,
						"y": 25,
						"w": 12,
						"h": 26
					},
					"rotated": false,
					"trimmed": false,
					"spriteSourceSize": {
						"x": 0,
						"y": 0,
						"w": 12,
						"h": 26
					},
					"sourceSize": {
						"w": 12,
						"h": 26
					}
				},
				{
					"filename": "tankGreen_barrel3.png",
					"frame": {
						"x": 233,
						"y": 25,
						"w": 8,
						"h": 26
					},
					"rotated": false,
					"trimmed": false,
					"spriteSourceSize": {
						"x": 0,
						"y": 0,
						"w": 8,
						"h": 26
					},
					"sourceSize": {
						"w": 8,
						"h": 26
					}
				},
				{
					"filename": "tankBlue_barrel1.png",
					"frame": {
						"x": 243,
						"y": 25,
						"w": 12,
						"h": 26
					},
					"rotated": false,
					"trimmed": false,
					"spriteSourceSize": {
						"x": 0,
						"y": 0,
						"w": 12,
						"h": 26
					},
					"sourceSize": {
						"w": 12,
						"h": 26
					}
				},
				{
					"filename": "tankGreen_barrel2.png",
					"frame": {
						"x": 257,
						"y": 25,
						"w": 8,
						"h": 26
					},
					"rotated": false,
					"trimmed": false,
					"spriteSourceSize": {
						"x": 0,
						"y": 0,
						"w": 8,
						"h": 26
					},
					"sourceSize": {
						"w": 8,
						"h": 26
					}
				},
				{
					"filename": "tankGreen_barrel1.png",
					"frame": {
						"x": 267,
						"y": 25,
						"w": 12,
						"h": 26
					},
					"rotated": false,
					"trimmed": false,
					"spriteSourceSize": {
						"x": 0,
						"y": 0,
						"w": 12,
						"h": 26
					},
					"sourceSize": {
						"w": 12,
						"h": 26
					}
				},
				{
					"filename": "tankSand_barrel1.png",
					"frame": {
						"x": 281,
						"y": 25,
						"w": 12,
						"h": 26
					},
					"rotated": false,
					"trimmed": false,
					"spriteSourceSize": {
						"x": 0,
						"y": 0,
						"w": 12,
						"h": 26
					},
					"sourceSize": {
						"w": 12,
						"h": 26
					}
				},
				{
					"filename": "shotThin.png",
					"frame": {
						"x": 295,
						"y": 25,
						"w": 8,
						"h": 26
					},
					"rotated": false,
					"trimmed": false,
					"spriteSourceSize": {
						"x": 0,
						"y": 0,
						"w": 8,
						"h": 26
					},
					"sourceSize": {
						"w": 8,
						"h": 26
					}
				},
				{
					"filename": "tankDark_barrel3.png",
					"frame": {
						"x": 305,
						"y": 25,
						"w": 8,
						"h": 26
					},
					"rotated": false,
					"trimmed": false,
					"spriteSourceSize": {
						"x": 0,
						"y": 0,
						"w": 8,
						"h": 26
					},
					"sourceSize": {
						"w": 8,
						"h": 26
					}
				},
				{
					"filename": "tankDark_barrel2.png",
					"frame": {
						"x": 315,
						"y": 25,
						"w": 8,
						"h": 26
					},
					"rotated": false,
					"trimmed": false,
					"spriteSourceSize": {
						"x": 0,
						"y": 0,
						"w": 8,
						"h": 26
					},
					"sourceSize": {
						"w": 8,
						"h": 26
					}
				},
				{
					"filename": "tankBlue_barrel2.png",
					"frame": {
						"x": 325,
						"y": 25,
						"w": 8,
						"h": 26
					},
					"rotated": false,
					"trimmed": false,
					"spriteSourceSize": {
						"x": 0,
						"y": 0,
						"w": 8,
						"h": 26
					},
					"sourceSize": {
						"w": 8,
						"h": 26
					}
				},
				{
					"filename": "tankBlue_barrel3.png",
					"frame": {
						"x": 335,
						"y": 25,
						"w": 8,
						"h": 26
					},
					"rotated": false,
					"trimmed": false,
					"spriteSourceSize": {
						"x": 0,
						"y": 0,
						"w": 8,
						"h": 26
					},
					"sourceSize": {
						"w": 8,
						"h": 26
					}
				},
				{
					"filename": "specialBarrel1_outline.png",
					"frame": {
						"x": 345,
						"y": 25,
						"w": 18,
						"h": 26
					},
					"rotated": false,
					"trimmed": false,
					"spriteSourceSize": {
						"x": 0,
						"y": 0,
						"w": 18,
						"h": 26
					},
					"sourceSize": {
						"w": 18,
						"h": 26
					}
				},
				{
					"filename": "specialBarrel7.png",
					"frame": {
						"x": 365,
						"y": 25,
						"w": 8,
						"h": 26
					},
					"rotated": false,
					"trimmed": false,
					"spriteSourceSize": {
						"x": 0,
						"y": 0,
						"w": 8,
						"h": 26
					},
					"sourceSize": {
						"w": 8,
						"h": 26
					}
				},
				{
					"filename": "tankRed_barrel3.png",
					"frame": {
						"x": 375,
						"y": 25,
						"w": 8,
						"h": 26
					},
					"rotated": false,
					"trimmed": false,
					"spriteSourceSize": {
						"x": 0,
						"y": 0,
						"w": 8,
						"h": 26
					},
					"sourceSize": {
						"w": 8,
						"h": 26
					}
				},
				{
					"filename": "tankRed_barrel2.png",
					"frame": {
						"x": 385,
						"y": 25,
						"w": 8,
						"h": 26
					},
					"rotated": false,
					"trimmed": false,
					"spriteSourceSize": {
						"x": 0,
						"y": 0,
						"w": 8,
						"h": 26
					},
					"sourceSize": {
						"w": 8,
						"h": 26
					}
				},
				{
					"filename": "specialBarrel6.png",
					"frame": {
						"x": 395,
						"y": 25,
						"w": 8,
						"h": 26
					},
					"rotated": false,
					"trimmed": false,
					"spriteSourceSize": {
						"x": 0,
						"y": 0,
						"w": 8,
						"h": 26
					},
					"sourceSize": {
						"w": 8,
						"h": 26
					}
				},
				{
					"filename": "specialBarrel5.png",
					"frame": {
						"x": 405,
						"y": 25,
						"w": 12,
						"h": 26
					},
					"rotated": false,
					"trimmed": false,
					"spriteSourceSize": {
						"x": 0,
						"y": 0,
						"w": 12,
						"h": 26
					},
					"sourceSize": {
						"w": 12,
						"h": 26
					}
				},
				{
					"filename": "tankSand_barrel3.png",
					"frame": {
						"x": 419,
						"y": 25,
						"w": 8,
						"h": 26
					},
					"rotated": false,
					"trimmed": false,
					"spriteSourceSize": {
						"x": 0,
						"y": 0,
						"w": 8,
						"h": 26
					},
					"sourceSize": {
						"w": 8,
						"h": 26
					}
				},
				{
					"filename": "tankSand_barrel2.png",
					"frame": {
						"x": 429,
						"y": 25,
						"w": 8,
						"h": 26
					},
					"rotated": false,
					"trimmed": false,
					"spriteSourceSize": {
						"x": 0,
						"y": 0,
						"w": 8,
						"h": 26
					},
					"sourceSize": {
						"w": 8,
						"h": 26
					}
				},
				{
					"filename": "tankDark_barrel1.png",
					"frame": {
						"x": 439,
						"y": 25,
						"w": 12,
						"h": 26
					},
					"rotated": false,
					"trimmed": false,
					"spriteSourceSize": {
						"x": 0,
						"y": 0,
						"w": 12,
						"h": 26
					},
					"sourceSize": {
						"w": 12,
						"h": 26
					}
				},
				{
					"filename": "crateMetal.png",
					"frame": {
						"x": 453,
						"y": 25,
						"w": 28,
						"h": 28
					},
					"rotated": false,
					"trimmed": false,
					"spriteSourceSize": {
						"x": 0,
						"y": 0,
						"w": 28,
						"h": 28
					},
					"sourceSize": {
						"w": 28,
						"h": 28
					}
				},
				{
					"filename": "barricadeWood.png",
					"frame": {
						"x": 1,
						"y": 55,
						"w": 28,
						"h": 28
					},
					"rotated": false,
					"trimmed": false,
					"spriteSourceSize": {
						"x": 0,
						"y": 0,
						"w": 28,
						"h": 28
					},
					"sourceSize": {
						"w": 28,
						"h": 28
					}
				},
				{
					"filename": "crateMetal_side.png",
					"frame": {
						"x": 31,
						"y": 55,
						"w": 28,
						"h": 28
					},
					"rotated": false,
					"trimmed": false,
					"spriteSourceSize": {
						"x": 0,
						"y": 0,
						"w": 28,
						"h": 28
					},
					"sourceSize": {
						"w": 28,
						"h": 28
					}
				},
				{
					"filename": "crateWood.png",
					"frame": {
						"x": 61,
						"y": 55,
						"w": 28,
						"h": 28
					},
					"rotated": false,
					"trimmed": false,
					"spriteSourceSize": {
						"x": 0,
						"y": 0,
						"w": 28,
						"h": 28
					},
					"sourceSize": {
						"w": 28,
						"h": 28
					}
				},
				{
					"filename": "barricadeMetal.png",
					"frame": {
						"x": 91,
						"y": 55,
						"w": 28,
						"h": 28
					},
					"rotated": false,
					"trimmed": false,
					"spriteSourceSize": {
						"x": 0,
						"y": 0,
						"w": 28,
						"h": 28
					},
					"sourceSize": {
						"w": 28,
						"h": 28
					}
				},
				{
					"filename": "crateWood_side.png",
					"frame": {
						"x": 121,
						"y": 55,
						"w": 28,
						"h": 28
					},
					"rotated": false,
					"trimmed": false,
					"spriteSourceSize": {
						"x": 0,
						"y": 0,
						"w": 28,
						"h": 28
					},
					"sourceSize": {
						"w": 28,
						"h": 28
					}
				},
				{
					"filename": "barrelGreen_side.png",
					"frame": {
						"x": 151,
						"y": 55,
						"w": 20,
						"h": 28
					},
					"rotated": false,
					"trimmed": false,
					"spriteSourceSize": {
						"x": 0,
						"y": 0,
						"w": 20,
						"h": 28
					},
					"sourceSize": {
						"w": 20,
						"h": 28
					}
				},
				{
					"filename": "barrelRust_side.png",
					"frame": {
						"x": 173,
						"y": 55,
						"w": 20,
						"h": 28
					},
					"rotated": false,
					"trimmed": false,
					"spriteSourceSize": {
						"x": 0,
						"y": 0,
						"w": 20,
						"h": 28
					},
					"sourceSize": {
						"w": 20,
						"h": 28
					}
				},
				{
					"filename": "barrelRed_side.png",
					"frame": {
						"x": 195,
						"y": 55,
						"w": 20,
						"h": 28
					},
					"rotated": false,
					"trimmed": false,
					"spriteSourceSize": {
						"x": 0,
						"y": 0,
						"w": 20,
						"h": 28
					},
					"sourceSize": {
						"w": 20,
						"h": 28
					}
				},
				{
					"filename": "shotOrange.png",
					"frame": {
						"x": 217,
						"y": 55,
						"w": 16,
						"h": 28
					},
					"rotated": false,
					"trimmed": false,
					"spriteSourceSize": {
						"x": 0,
						"y": 0,
						"w": 16,
						"h": 28
					},
					"sourceSize": {
						"w": 16,
						"h": 28
					}
				},
				{
					"filename": "specialBarrel2_outline.png",
					"frame": {
						"x": 235,
						"y": 55,
						"w": 16,
						"h": 28
					},
					"rotated": false,
					"trimmed": false,
					"spriteSourceSize": {
						"x": 0,
						"y": 0,
						"w": 16,
						"h": 28
					},
					"sourceSize": {
						"w": 16,
						"h": 28
					}
				},
				{
					"filename": "sandbagBeige_open.png",
					"frame": {
						"x": 253,
						"y": 55,
						"w": 42,
						"h": 28
					},
					"rotated": false,
					"trimmed": false,
					"spriteSourceSize": {
						"x": 0,
						"y": 0,
						"w": 42,
						"h": 28
					},
					"sourceSize": {
						"w": 42,
						"h": 28
					}
				},
				{
					"filename": "barrelBlack_side.png",
					"frame": {
						"x": 297,
						"y": 55,
						"w": 20,
						"h": 28
					},
					"rotated": false,
					"trimmed": false,
					"spriteSourceSize": {
						"x": 0,
						"y": 0,
						"w": 20,
						"h": 28
					},
					"sourceSize": {
						"w": 20,
						"h": 28
					}
				},
				{
					"filename": "specialBarrel3.png",
					"frame": {
						"x": 319,
						"y": 55,
						"w": 10,
						"h": 28
					},
					"rotated": false,
					"trimmed": false,
					"spriteSourceSize": {
						"x": 0,
						"y": 0,
						"w": 10,
						"h": 28
					},
					"sourceSize": {
						"w": 10,
						"h": 28
					}
				},
				{
					"filename": "sandbagBrown_open.png",
					"frame": {
						"x": 331,
						"y": 55,
						"w": 42,
						"h": 28
					},
					"rotated": false,
					"trimmed": false,
					"spriteSourceSize": {
						"x": 0,
						"y": 0,
						"w": 42,
						"h": 28
					},
					"sourceSize": {
						"w": 42,
						"h": 28
					}
				},
				{
					"filename": "tankGreen_barrel3_outline.png",
					"frame": {
						"x": 375,
						"y": 55,
						"w": 12,
						"h": 30
					},
					"rotated": false,
					"trimmed": false,
					"spriteSourceSize": {
						"x": 0,
						"y": 0,
						"w": 12,
						"h": 30
					},
					"sourceSize": {
						"w": 12,
						"h": 30
					}
				},
				{
					"filename": "tankGreen_barrel2_outline.png",
					"frame": {
						"x": 389,
						"y": 55,
						"w": 12,
						"h": 30
					},
					"rotated": false,
					"trimmed": false,
					"spriteSourceSize": {
						"x": 0,
						"y": 0,
						"w": 12,
						"h": 30
					},
					"sourceSize": {
						"w": 12,
						"h": 30
					}
				},
				{
					"filename": "tankDark_barrel2_outline.png",
					"frame": {
						"x": 403,
						"y": 55,
						"w": 12,
						"h": 30
					},
					"rotated": false,
					"trimmed": false,
					"spriteSourceSize": {
						"x": 0,
						"y": 0,
						"w": 12,
						"h": 30
					},
					"sourceSize": {
						"w": 12,
						"h": 30
					}
				},
				{
					"filename": "tankSand_barrel2_outline.png",
					"frame": {
						"x": 417,
						"y": 55,
						"w": 12,
						"h": 30
					},
					"rotated": false,
					"trimmed": false,
					"spriteSourceSize": {
						"x": 0,
						"y": 0,
						"w": 12,
						"h": 30
					},
					"sourceSize": {
						"w": 12,
						"h": 30
					}
				},
				{
					"filename": "tankGreen_barrel1_outline.png",
					"frame": {
						"x": 431,
						"y": 55,
						"w": 16,
						"h": 30
					},
					"rotated": false,
					"trimmed": false,
					"spriteSourceSize": {
						"x": 0,
						"y": 0,
						"w": 16,
						"h": 30
					},
					"sourceSize": {
						"w": 16,
						"h": 30
					}
				},
				{
					"filename": "tankDark_barrel3_outline.png",
					"frame": {
						"x": 449,
						"y": 55,
						"w": 12,
						"h": 30
					},
					"rotated": false,
					"trimmed": false,
					"spriteSourceSize": {
						"x": 0,
						"y": 0,
						"w": 12,
						"h": 30
					},
					"sourceSize": {
						"w": 12,
						"h": 30
					}
				},
				{
					"filename": "tankDark_barrel1_outline.png",
					"frame": {
						"x": 463,
						"y": 55,
						"w": 16,
						"h": 30
					},
					"rotated": false,
					"trimmed": false,
					"spriteSourceSize": {
						"x": 0,
						"y": 0,
						"w": 16,
						"h": 30
					},
					"sourceSize": {
						"w": 16,
						"h": 30
					}
				},
				{
					"filename": "tankSand_barrel1_outline.png",
					"frame": {
						"x": 481,
						"y": 55,
						"w": 16,
						"h": 30
					},
					"rotated": false,
					"trimmed": false,
					"spriteSourceSize": {
						"x": 0,
						"y": 0,
						"w": 16,
						"h": 30
					},
					"sourceSize": {
						"w": 16,
						"h": 30
					}
				},
				{
					"filename": "tankRed_barrel1_outline.png",
					"frame": {
						"x": 1,
						"y": 87,
						"w": 16,
						"h": 30
					},
					"rotated": false,
					"trimmed": false,
					"spriteSourceSize": {
						"x": 0,
						"y": 0,
						"w": 16,
						"h": 30
					},
					"sourceSize": {
						"w": 16,
						"h": 30
					}
				},
				{
					"filename": "tankBlue_barrel2_outline.png",
					"frame": {
						"x": 19,
						"y": 87,
						"w": 12,
						"h": 30
					},
					"rotated": false,
					"trimmed": false,
					"spriteSourceSize": {
						"x": 0,
						"y": 0,
						"w": 12,
						"h": 30
					},
					"sourceSize": {
						"w": 12,
						"h": 30
					}
				},
				{
					"filename": "specialBarrel7_outline.png",
					"frame": {
						"x": 33,
						"y": 87,
						"w": 12,
						"h": 30
					},
					"rotated": false,
					"trimmed": false,
					"spriteSourceSize": {
						"x": 0,
						"y": 0,
						"w": 12,
						"h": 30
					},
					"sourceSize": {
						"w": 12,
						"h": 30
					}
				},
				{
					"filename": "tankSand_barrel3_outline.png",
					"frame": {
						"x": 47,
						"y": 87,
						"w": 12,
						"h": 30
					},
					"rotated": false,
					"trimmed": false,
					"spriteSourceSize": {
						"x": 0,
						"y": 0,
						"w": 12,
						"h": 30
					},
					"sourceSize": {
						"w": 12,
						"h": 30
					}
				},
				{
					"filename": "specialBarrel6_outline.png",
					"frame": {
						"x": 61,
						"y": 87,
						"w": 12,
						"h": 30
					},
					"rotated": false,
					"trimmed": false,
					"spriteSourceSize": {
						"x": 0,
						"y": 0,
						"w": 12,
						"h": 30
					},
					"sourceSize": {
						"w": 12,
						"h": 30
					}
				},
				{
					"filename": "tankBlue_barrel1_outline.png",
					"frame": {
						"x": 75,
						"y": 87,
						"w": 16,
						"h": 30
					},
					"rotated": false,
					"trimmed": false,
					"spriteSourceSize": {
						"x": 0,
						"y": 0,
						"w": 16,
						"h": 30
					},
					"sourceSize": {
						"w": 16,
						"h": 30
					}
				},
				{
					"filename": "specialBarrel5_outline.png",
					"frame": {
						"x": 93,
						"y": 87,
						"w": 16,
						"h": 30
					},
					"rotated": false,
					"trimmed": false,
					"spriteSourceSize": {
						"x": 0,
						"y": 0,
						"w": 16,
						"h": 30
					},
					"sourceSize": {
						"w": 16,
						"h": 30
					}
				},
				{
					"filename": "tankRed_barrel2_outline.png",
					"frame": {
						"x": 111,
						"y": 87,
						"w": 12,
						"h": 30
					},
					"rotated": false,
					"trimmed": false,
					"spriteSourceSize": {
						"x": 0,
						"y": 0,
						"w": 12,
						"h": 30
					},
					"sourceSize": {
						"w": 12,
						"h": 30
					}
				},
				{
					"filename": "tankRed_barrel3_outline.png",
					"frame": {
						"x": 125,
						"y": 87,
						"w": 12,
						"h": 30
					},
					"rotated": false,
					"trimmed": false,
					"spriteSourceSize": {
						"x": 0,
						"y": 0,
						"w": 12,
						"h": 30
					},
					"sourceSize": {
						"w": 12,
						"h": 30
					}
				},
				{
					"filename": "tankBlue_barrel3_outline.png",
					"frame": {
						"x": 139,
						"y": 87,
						"w": 12,
						"h": 30
					},
					"rotated": false,
					"trimmed": false,
					"spriteSourceSize": {
						"x": 0,
						"y": 0,
						"w": 12,
						"h": 30
					},
					"sourceSize": {
						"w": 12,
						"h": 30
					}
				},
				{
					"filename": "specialBarrel3_outline.png",
					"frame": {
						"x": 153,
						"y": 87,
						"w": 14,
						"h": 32
					},
					"rotated": false,
					"trimmed": false,
					"spriteSourceSize": {
						"x": 0,
						"y": 0,
						"w": 14,
						"h": 32
					},
					"sourceSize": {
						"w": 14,
						"h": 32
					}
				},
				{
					"filename": "specialBarrel4.png",
					"frame": {
						"x": 169,
						"y": 87,
						"w": 10,
						"h": 32
					},
					"rotated": false,
					"trimmed": false,
					"spriteSourceSize": {
						"x": 0,
						"y": 0,
						"w": 10,
						"h": 32
					},
					"sourceSize": {
						"w": 10,
						"h": 32
					}
				},
				{
					"filename": "treeGreen_small.png",
					"frame": {
						"x": 181,
						"y": 87,
						"w": 36,
						"h": 36
					},
					"rotated": false,
					"trimmed": false,
					"spriteSourceSize": {
						"x": 0,
						"y": 0,
						"w": 36,
						"h": 36
					},
					"sourceSize": {
						"w": 36,
						"h": 36
					}
				},
				{
					"filename": "treeBrown_small.png",
					"frame": {
						"x": 219,
						"y": 87,
						"w": 36,
						"h": 36
					},
					"rotated": false,
					"trimmed": false,
					"spriteSourceSize": {
						"x": 0,
						"y": 0,
						"w": 36,
						"h": 36
					},
					"sourceSize": {
						"w": 36,
						"h": 36
					}
				},
				{
					"filename": "specialBarrel4_outline.png",
					"frame": {
						"x": 257,
						"y": 87,
						"w": 14,
						"h": 36
					},
					"rotated": false,
					"trimmed": false,
					"spriteSourceSize": {
						"x": 0,
						"y": 0,
						"w": 14,
						"h": 36
					},
					"sourceSize": {
						"w": 14,
						"h": 36
					}
				},
				{
					"filename": "tankBody_dark.png",
					"frame": {
						"x": 273,
						"y": 87,
						"w": 38,
						"h": 36
					},
					"rotated": false,
					"trimmed": false,
					"spriteSourceSize": {
						"x": 0,
						"y": 0,
						"w": 38,
						"h": 36
					},
					"sourceSize": {
						"w": 38,
						"h": 36
					}
				},
				{
					"filename": "tankBody_red.png",
					"frame": {
						"x": 313,
						"y": 87,
						"w": 34,
						"h": 36
					},
					"rotated": false,
					"trimmed": false,
					"spriteSourceSize": {
						"x": 0,
						"y": 0,
						"w": 34,
						"h": 36
					},
					"sourceSize": {
						"w": 34,
						"h": 36
					}
				},
				{
					"filename": "tankBody_green.png",
					"frame": {
						"x": 349,
						"y": 87,
						"w": 38,
						"h": 36
					},
					"rotated": false,
					"trimmed": false,
					"spriteSourceSize": {
						"x": 0,
						"y": 0,
						"w": 38,
						"h": 36
					},
					"sourceSize": {
						"w": 38,
						"h": 36
					}
				},
				{
					"filename": "tankBody_sand.png",
					"frame": {
						"x": 389,
						"y": 87,
						"w": 38,
						"h": 36
					},
					"rotated": false,
					"trimmed": false,
					"spriteSourceSize": {
						"x": 0,
						"y": 0,
						"w": 38,
						"h": 36
					},
					"sourceSize": {
						"w": 38,
						"h": 36
					}
				},
				{
					"filename": "shotRed.png",
					"frame": {
						"x": 429,
						"y": 87,
						"w": 21,
						"h": 38
					},
					"rotated": false,
					"trimmed": false,
					"spriteSourceSize": {
						"x": 0,
						"y": 0,
						"w": 21,
						"h": 38
					},
					"sourceSize": {
						"w": 21,
						"h": 38
					}
				},
				{
					"filename": "tankBody_blue.png",
					"frame": {
						"x": 452,
						"y": 87,
						"w": 38,
						"h": 38
					},
					"rotated": false,
					"trimmed": false,
					"spriteSourceSize": {
						"x": 0,
						"y": 0,
						"w": 38,
						"h": 38
					},
					"sourceSize": {
						"w": 38,
						"h": 38
					}
				},
				{
					"filename": "tankBody_dark_outline.png",
					"frame": {
						"x": 1,
						"y": 127,
						"w": 42,
						"h": 40
					},
					"rotated": false,
					"trimmed": false,
					"spriteSourceSize": {
						"x": 0,
						"y": 0,
						"w": 42,
						"h": 40
					},
					"sourceSize": {
						"w": 42,
						"h": 40
					}
				},
				{
					"filename": "tankBody_sand_outline.png",
					"frame": {
						"x": 45,
						"y": 127,
						"w": 42,
						"h": 40
					},
					"rotated": false,
					"trimmed": false,
					"spriteSourceSize": {
						"x": 0,
						"y": 0,
						"w": 42,
						"h": 40
					},
					"sourceSize": {
						"w": 42,
						"h": 40
					}
				},
				{
					"filename": "tankBody_red_outline.png",
					"frame": {
						"x": 89,
						"y": 127,
						"w": 38,
						"h": 40
					},
					"rotated": false,
					"trimmed": false,
					"spriteSourceSize": {
						"x": 0,
						"y": 0,
						"w": 38,
						"h": 40
					},
					"sourceSize": {
						"w": 38,
						"h": 40
					}
				},
				{
					"filename": "tankBody_green_outline.png",
					"frame": {
						"x": 129,
						"y": 127,
						"w": 42,
						"h": 40
					},
					"rotated": false,
					"trimmed": false,
					"spriteSourceSize": {
						"x": 0,
						"y": 0,
						"w": 42,
						"h": 40
					},
					"sourceSize": {
						"w": 42,
						"h": 40
					}
				},
				{
					"filename": "tankBody_blue_outline.png",
					"frame": {
						"x": 173,
						"y": 127,
						"w": 42,
						"h": 42
					},
					"rotated": false,
					"trimmed": false,
					"spriteSourceSize": {
						"x": 0,
						"y": 0,
						"w": 42,
						"h": 42
					},
					"sourceSize": {
						"w": 42,
						"h": 42
					}
				},
				{
					"filename": "explosionSmoke4.png",
					"frame": {
						"x": 217,
						"y": 127,
						"w": 46,
						"h": 45
					},
					"rotated": false,
					"trimmed": false,
					"spriteSourceSize": {
						"x": 0,
						"y": 0,
						"w": 46,
						"h": 45
					},
					"sourceSize": {
						"w": 46,
						"h": 45
					}
				},
				{
					"filename": "explosion4.png",
					"frame": {
						"x": 265,
						"y": 127,
						"w": 46,
						"h": 45
					},
					"rotated": false,
					"trimmed": false,
					"spriteSourceSize": {
						"x": 0,
						"y": 0,
						"w": 46,
						"h": 45
					},
					"sourceSize": {
						"w": 46,
						"h": 45
					}
				},
				{
					"filename": "tank_green.png",
					"frame": {
						"x": 313,
						"y": 127,
						"w": 42,
						"h": 46
					},
					"rotated": false,
					"trimmed": false,
					"spriteSourceSize": {
						"x": 0,
						"y": 0,
						"w": 42,
						"h": 46
					},
					"sourceSize": {
						"w": 42,
						"h": 46
					}
				},
				{
					"filename": "tank_red.png",
					"frame": {
						"x": 357,
						"y": 127,
						"w": 38,
						"h": 46
					},
					"rotated": false,
					"trimmed": false,
					"spriteSourceSize": {
						"x": 0,
						"y": 0,
						"w": 38,
						"h": 46
					},
					"sourceSize": {
						"w": 38,
						"h": 46
					}
				},
				{
					"filename": "tank_sand.png",
					"frame": {
						"x": 397,
						"y": 127,
						"w": 42,
						"h": 46
					},
					"rotated": false,
					"trimmed": false,
					"spriteSourceSize": {
						"x": 0,
						"y": 0,
						"w": 42,
						"h": 46
					},
					"sourceSize": {
						"w": 42,
						"h": 46
					}
				},
				{
					"filename": "tank_dark.png",
					"frame": {
						"x": 441,
						"y": 127,
						"w": 42,
						"h": 46
					},
					"rotated": false,
					"trimmed": false,
					"spriteSourceSize": {
						"x": 0,
						"y": 0,
						"w": 42,
						"h": 46
					},
					"sourceSize": {
						"w": 42,
						"h": 46
					}
				},
				{
					"filename": "tank_blue.png",
					"frame": {
						"x": 1,
						"y": 175,
						"w": 42,
						"h": 46
					},
					"rotated": false,
					"trimmed": false,
					"spriteSourceSize": {
						"x": 0,
						"y": 0,
						"w": 42,
						"h": 46
					},
					"sourceSize": {
						"w": 42,
						"h": 46
					}
				},
				{
					"filename": "tankBody_bigRed.png",
					"frame": {
						"x": 45,
						"y": 175,
						"w": 48,
						"h": 48
					},
					"rotated": false,
					"trimmed": false,
					"spriteSourceSize": {
						"x": 0,
						"y": 0,
						"w": 48,
						"h": 48
					},
					"sourceSize": {
						"w": 48,
						"h": 48
					}
				},
				{
					"filename": "wireCrooked.png",
					"frame": {
						"x": 95,
						"y": 175,
						"w": 44,
						"h": 48
					},
					"rotated": false,
					"trimmed": false,
					"spriteSourceSize": {
						"x": 0,
						"y": 0,
						"w": 44,
						"h": 48
					},
					"sourceSize": {
						"w": 44,
						"h": 48
					}
				},
				{
					"filename": "oilSpill_large.png",
					"frame": {
						"x": 141,
						"y": 175,
						"w": 50,
						"h": 50
					},
					"rotated": false,
					"trimmed": false,
					"spriteSourceSize": {
						"x": 0,
						"y": 0,
						"w": 50,
						"h": 50
					},
					"sourceSize": {
						"w": 50,
						"h": 50
					}
				},
				{
					"filename": "explosion5.png",
					"frame": {
						"x": 193,
						"y": 175,
						"w": 53,
						"h": 52
					},
					"rotated": false,
					"trimmed": false,
					"spriteSourceSize": {
						"x": 0,
						"y": 0,
						"w": 53,
						"h": 52
					},
					"sourceSize": {
						"w": 53,
						"h": 52
					}
				},
				{
					"filename": "tracksLarge.png",
					"frame": {
						"x": 248,
						"y": 175,
						"w": 41,
						"h": 52
					},
					"rotated": false,
					"trimmed": false,
					"spriteSourceSize": {
						"x": 0,
						"y": 0,
						"w": 41,
						"h": 52
					},
					"sourceSize": {
						"w": 41,
						"h": 52
					}
				},
				{
					"filename": "tracksDouble.png",
					"frame": {
						"x": 291,
						"y": 175,
						"w": 41,
						"h": 52
					},
					"rotated": false,
					"trimmed": false,
					"spriteSourceSize": {
						"x": 0,
						"y": 0,
						"w": 41,
						"h": 52
					},
					"sourceSize": {
						"w": 41,
						"h": 52
					}
				},
				{
					"filename": "tankBody_bigRed_outline.png",
					"frame": {
						"x": 334,
						"y": 175,
						"w": 52,
						"h": 52
					},
					"rotated": false,
					"trimmed": false,
					"spriteSourceSize": {
						"x": 0,
						"y": 0,
						"w": 52,
						"h": 52
					},
					"sourceSize": {
						"w": 52,
						"h": 52
					}
				},
				{
					"filename": "tracksSmall.png",
					"frame": {
						"x": 388,
						"y": 175,
						"w": 37,
						"h": 52
					},
					"rotated": false,
					"trimmed": false,
					"spriteSourceSize": {
						"x": 0,
						"y": 0,
						"w": 37,
						"h": 52
					},
					"sourceSize": {
						"w": 37,
						"h": 52
					}
				},
				{
					"filename": "explosionSmoke5.png",
					"frame": {
						"x": 427,
						"y": 175,
						"w": 53,
						"h": 52
					},
					"rotated": false,
					"trimmed": false,
					"spriteSourceSize": {
						"x": 0,
						"y": 0,
						"w": 53,
						"h": 52
					},
					"sourceSize": {
						"w": 53,
						"h": 52
					}
				},
				{
					"filename": "tank_bigRed.png",
					"frame": {
						"x": 1,
						"y": 229,
						"w": 52,
						"h": 52
					},
					"rotated": false,
					"trimmed": false,
					"spriteSourceSize": {
						"x": 0,
						"y": 0,
						"w": 52,
						"h": 52
					},
					"sourceSize": {
						"w": 52,
						"h": 52
					}
				},
				{
					"filename": "explosion2.png",
					"frame": {
						"x": 55,
						"y": 229,
						"w": 57,
						"h": 56
					},
					"rotated": false,
					"trimmed": false,
					"spriteSourceSize": {
						"x": 0,
						"y": 0,
						"w": 57,
						"h": 56
					},
					"sourceSize": {
						"w": 57,
						"h": 56
					}
				},
				{
					"filename": "tankBody_darkLarge.png",
					"frame": {
						"x": 114,
						"y": 229,
						"w": 48,
						"h": 56
					},
					"rotated": false,
					"trimmed": false,
					"spriteSourceSize": {
						"x": 0,
						"y": 0,
						"w": 48,
						"h": 56
					},
					"sourceSize": {
						"w": 48,
						"h": 56
					}
				},
				{
					"filename": "explosionSmoke2.png",
					"frame": {
						"x": 164,
						"y": 229,
						"w": 57,
						"h": 56
					},
					"rotated": false,
					"trimmed": false,
					"spriteSourceSize": {
						"x": 0,
						"y": 0,
						"w": 57,
						"h": 56
					},
					"sourceSize": {
						"w": 57,
						"h": 56
					}
				},
				{
					"filename": "explosionSmoke1.png",
					"frame": {
						"x": 223,
						"y": 229,
						"w": 60,
						"h": 60
					},
					"rotated": false,
					"trimmed": false,
					"spriteSourceSize": {
						"x": 0,
						"y": 0,
						"w": 60,
						"h": 60
					},
					"sourceSize": {
						"w": 60,
						"h": 60
					}
				},
				{
					"filename": "explosion1.png",
					"frame": {
						"x": 285,
						"y": 229,
						"w": 60,
						"h": 60
					},
					"rotated": false,
					"trimmed": false,
					"spriteSourceSize": {
						"x": 0,
						"y": 0,
						"w": 60,
						"h": 60
					},
					"sourceSize": {
						"w": 60,
						"h": 60
					}
				},
				{
					"filename": "tank_darkLarge.png",
					"frame": {
						"x": 347,
						"y": 229,
						"w": 52,
						"h": 60
					},
					"rotated": false,
					"trimmed": false,
					"spriteSourceSize": {
						"x": 0,
						"y": 0,
						"w": 52,
						"h": 60
					},
					"sourceSize": {
						"w": 52,
						"h": 60
					}
				},
				{
					"filename": "tankBody_darkLarge_outline.png",
					"frame": {
						"x": 401,
						"y": 229,
						"w": 52,
						"h": 60
					},
					"rotated": false,
					"trimmed": false,
					"spriteSourceSize": {
						"x": 0,
						"y": 0,
						"w": 52,
						"h": 60
					},
					"sourceSize": {
						"w": 52,
						"h": 60
					}
				},
				{
					"filename": "explosion3.png",
					"frame": {
						"x": 1,
						"y": 291,
						"w": 64,
						"h": 63
					},
					"rotated": false,
					"trimmed": false,
					"spriteSourceSize": {
						"x": 0,
						"y": 0,
						"w": 64,
						"h": 63
					},
					"sourceSize": {
						"w": 64,
						"h": 63
					}
				},
				{
					"filename": "explosionSmoke3.png",
					"frame": {
						"x": 67,
						"y": 291,
						"w": 63,
						"h": 63
					},
					"rotated": false,
					"trimmed": false,
					"spriteSourceSize": {
						"x": 0,
						"y": 0,
						"w": 63,
						"h": 63
					},
					"sourceSize": {
						"w": 63,
						"h": 63
					}
				},
				{
					"filename": "treeBrown_large.png",
					"frame": {
						"x": 132,
						"y": 291,
						"w": 64,
						"h": 64
					},
					"rotated": false,
					"trimmed": false,
					"spriteSourceSize": {
						"x": 0,
						"y": 0,
						"w": 64,
						"h": 64
					},
					"sourceSize": {
						"w": 64,
						"h": 64
					}
				},
				{
					"filename": "treeGreen_large.png",
					"frame": {
						"x": 198,
						"y": 291,
						"w": 64,
						"h": 64
					},
					"rotated": false,
					"trimmed": false,
					"spriteSourceSize": {
						"x": 0,
						"y": 0,
						"w": 64,
						"h": 64
					},
					"sourceSize": {
						"w": 64,
						"h": 64
					}
				},
				{
					"filename": "tankBody_huge.png",
					"frame": {
						"x": 264,
						"y": 291,
						"w": 58,
						"h": 68
					},
					"rotated": false,
					"trimmed": false,
					"spriteSourceSize": {
						"x": 0,
						"y": 0,
						"w": 58,
						"h": 68
					},
					"sourceSize": {
						"w": 58,
						"h": 68
					}
				},
				{
					"filename": "wireStraight.png",
					"frame": {
						"x": 324,
						"y": 291,
						"w": 17,
						"h": 70
					},
					"rotated": false,
					"trimmed": false,
					"spriteSourceSize": {
						"x": 0,
						"y": 0,
						"w": 17,
						"h": 70
					},
					"sourceSize": {
						"w": 17,
						"h": 70
					}
				},
				{
					"filename": "tankBody_huge_outline.png",
					"frame": {
						"x": 343,
						"y": 291,
						"w": 62,
						"h": 72
					},
					"rotated": false,
					"trimmed": false,
					"spriteSourceSize": {
						"x": 0,
						"y": 0,
						"w": 62,
						"h": 72
					},
					"sourceSize": {
						"w": 62,
						"h": 72
					}
				},
				{
					"filename": "tank_huge.png",
					"frame": {
						"x": 407,
						"y": 291,
						"w": 62,
						"h": 76
					},
					"rotated": false,
					"trimmed": false,
					"spriteSourceSize": {
						"x": 0,
						"y": 0,
						"w": 62,
						"h": 76
					},
					"sourceSize": {
						"w": 62,
						"h": 76
					}
				}
			]
		}
	],
	"meta": {
		"app": "https://www.codeandweb.com/texturepacker",
		"version": "3.0",
		"smartupdate": "$TexturePacker:SmartUpdate:9d308feca6ca1974c6c5902906e3dc8e:6e4ce1cc079576d652a9e319b6bc0460:e3ee765dcb86c37cc90e57d93acf6013$"
	}
}
